// Jest Snapshot v1, https://goo.gl/fbAQLP

exports[`Car List component renders without crashing 1`] = `
Array [
  <td>
     
    <button
      class="btn btn-primary"
      onClick={[Function]}
    >
      Add Element
    </button>
     
  </td>,
  <table
    class="table"
  >
    <thead>
      <tr>
        <th
          scope="col"
        >
          Invoice Number
        </th>
        <th
          scope="col"
        >
          Model
        </th>
        <th
          scope="col"
        >
          Plate Number
        </th>
        <th
          scope="col"
        >
          Car Number
        </th>
        <th
          scope="col"
        >
          Delivery Date
        </th>
        <th
          scope="col"
        />
        <th
          scope="col"
        />
        <th
          scope="col"
        />
      </tr>
    </thead>
    <tbody>
      <tr>
        <td>
          12341
        </td>
        <td>
          Tesla Model 3
        </td>
        <td>
          1111111
        </td>
        <td>
          1111
        </td>
        <td>
          2020-08-19
        </td>
        <td>
          <button
            class="btn btn-secondary"
            name="update"
            onClick={[Function]}
          >
            Edit Element
          </button>
           
        </td>
        <td>
          <button
            class="btn btn-danger"
            name="delete"
            onClick={[Function]}
          >
            Delete Element
          </button>
           
        </td>
      </tr>
      <tr>
        <td>
          321451
        </td>
        <td>
          Mazda 3
        </td>
        <td>
          3016 LCB
        </td>
        <td>
          1224453435435f
        </td>
        <td>
          2020-08-13
        </td>
        <td>
          <button
            class="btn btn-secondary"
            name="update"
            onClick={[Function]}
          >
            Edit Element
          </button>
           
        </td>
        <td>
          <button
            class="btn btn-danger"
            name="delete"
            onClick={[Function]}
          >
            Delete Element
          </button>
           
        </td>
      </tr>
      <tr>
        <td>
          5555
        </td>
        <td>
          Nissan GTR
        </td>
        <td>
          66666
        </td>
        <td>
          55555
        </td>
        <td>
          2020-08-28
        </td>
        <td>
          <button
            class="btn btn-secondary"
            name="update"
            onClick={[Function]}
          >
            Edit Element
          </button>
           
        </td>
        <td>
          <button
            class="btn btn-danger"
            name="delete"
            onClick={[Function]}
          >
            Delete Element
          </button>
           
        </td>
      </tr>
      <tr>
        <td>
          12346
        </td>
        <td>
          Honda civic
        </td>
        <td>
          500 gxx
        </td>
        <td>
          1214151661
        </td>
        <td>
          2020-08-20
        </td>
        <td>
          <button
            class="btn btn-secondary"
            name="update"
            onClick={[Function]}
          >
            Edit Element
          </button>
           
        </td>
        <td>
          <button
            class="btn btn-danger"
            name="delete"
            onClick={[Function]}
          >
            Delete Element
          </button>
           
        </td>
      </tr>
    </tbody>
  </table>,
]
`;
